…
``` r
# Load necessary package to clean variable names
library(janitor)

# Clean names so that month is `MM' to `mm` and minute is `mm` to `mm_2
buoy <- clean_names(buoy)

buoy
```

    # A tibble: 8,525 × 18
          yy mm    dd    hh    mm_2   wdir  wspd   gst  wvht   dpd   apd   mwd  pres
       <dbl> <chr> <chr> <chr> <chr> <dbl> <dbl> <dbl> <dbl> <dbl> <dbl> <dbl> <dbl>
     1  2024 01    01    00    18       60   2.1    99    99    99    99   999 1019.
     2  2024 01    01    01    18       80   1      99    99    99    99   999 1019.
     3  2024 01    01    02    18      100   1.5    99    99    99    99   999 1019.
     4  2024 01    01    03    18       80   1.5    99    99    99    99   999 1019.
     5  2024 01    01    04    18       60   1.5    99    99    99    99   999 1019.
     6  2024 01    01    05    18      350   4.1    99    99    99    99   999 1019.
     7  2024 01    01    06    18       20   4.1    99    99    99    99   999 1019.
     8  2024 01    01    07    18       30   4.1    99    99    99    99   999 1020.
     9  2024 01    01    08    18       60   2.6    99    99    99    99   999 1020.
    10  2024 01    01    09    18       70   4.1    99    99    99    99   999 1020.
    # ℹ 8,515 more rows
    # ℹ 5 more variables: atmp <dbl>, wtmp <dbl>, dewp <dbl>, vis <dbl>, tide <dbl>
…
Remember that now we are reading back in a data file of type `csv`. Now
when you look at the data we should have `NA` instead of `99` or `999`
in our data, for example:

``` r
# Read in data, specify column type (defaults) as character, specify `NA`s as "99" and "999"
buoy_update <- read_csv("~/Documents/STATS_210_Spring_25/Labs/week6_lab4/data-raw/buoy_update.csv", 
                        col_types = list(.default = col_character()), 
                        na = c("99", "999"))
buoy_update
```

    # A tibble: 8,525 × 18
       yy    mm    dd    hh    mm_2  wdir  wspd  gst   wvht  dpd   apd   mwd   pres 
       <chr> <chr> <chr> <chr> <chr> <chr> <chr> <chr> <chr> <chr> <chr> <chr> <chr>
     1 2024  01    01    00    18    60    2.1   <NA>  <NA>  <NA>  <NA>  <NA>  1018…
     2 2024  01    01    01    18    80    1     <NA>  <NA>  <NA>  <NA>  <NA>  1018…
     3 2024  01    01    02    18    100   1.5   <NA>  <NA>  <NA>  <NA>  <NA>  1018…
     4 2024  01    01    03    18    80    1.5   <NA>  <NA>  <NA>  <NA>  <NA>  1019…
     5 2024  01    01    04    18    60    1.5   <NA>  <NA>  <NA>  <NA>  <NA>  1019…
     6 2024  01    01    05    18    350   4.1   <NA>  <NA>  <NA>  <NA>  <NA>  1019…
     7 2024  01    01    06    18    20    4.1   <NA>  <NA>  <NA>  <NA>  <NA>  1019…
     8 2024  01    01    07    18    30    4.1   <NA>  <NA>  <NA>  <NA>  <NA>  1019…
     9 2024  01    01    08    18    60    2.6   <NA>  <NA>  <NA>  <NA>  <NA>  1019…
    10 2024  01    01    09    18    70    4.1   <NA>  <NA>  <NA>  <NA>  <NA>  1019…
    # ℹ 8,515 more rows
    # ℹ 5 more variables: atmp <chr>, wtmp <chr>, dewp <chr>, vis <chr>, tide <chr>
…
Here is the code you can use to fix the data without exporting and
importing again (we will learn more about the `mutate()` function.
Insert whatever you called your buoy data on the last import for
`your_file_name`.

``` r
# Write and reread in the data, set column types to `double`
buoy_final <- buoy_update |> 
  mutate(across(.cols = everything(), ~parse_double(.x)))

buoy_final
```

    # A tibble: 8,525 × 18
          yy    mm    dd    hh  mm_2  wdir  wspd   gst  wvht   dpd   apd   mwd  pres
       <dbl> <dbl> <dbl> <dbl> <dbl> <dbl> <dbl> <dbl> <dbl> <dbl> <dbl> <dbl> <dbl>
     1  2024     1     1     0    18    60   2.1    NA    NA    NA    NA    NA 1019.
     2  2024     1     1     1    18    80   1      NA    NA    NA    NA    NA 1019.
     3  2024     1     1     2    18   100   1.5    NA    NA    NA    NA    NA 1019.
     4  2024     1     1     3    18    80   1.5    NA    NA    NA    NA    NA 1019.
     5  2024     1     1     4    18    60   1.5    NA    NA    NA    NA    NA 1019.
     6  2024     1     1     5    18   350   4.1    NA    NA    NA    NA    NA 1019.
     7  2024     1     1     6    18    20   4.1    NA    NA    NA    NA    NA 1019.
     8  2024     1     1     7    18    30   4.1    NA    NA    NA    NA    NA 1020.
     9  2024     1     1     8    18    60   2.6    NA    NA    NA    NA    NA 1020.
    10  2024     1     1     9    18    70   4.1    NA    NA    NA    NA    NA 1020.
    # ℹ 8,515 more rows
    # ℹ 5 more variables: atmp <dbl>, wtmp <dbl>, dewp <dbl>, vis <dbl>, tide <dbl>
…
Now that are data is “analytic ready”, go ahead and read in your clean
data and use it to try and recreate the following visualization. Do your
best to match the following visualization as close as possible. (Hint:
when specifying color, you may need to use `factor()` to get R to treat
a continuous value as discrete).

``` r
# Read in data with object name
canyon <- read_csv("~/Documents/STATS_210_Spring_25/Labs/week6_lab4/data-clean/buoy_final.csv", 
                   show_col_types = FALSE)

canyon
```

    # A tibble: 8,525 × 18
          yy    mm    dd    hh  mm_2  wdir  wspd gst   wvht  dpd   apd   mwd    pres
       <dbl> <dbl> <dbl> <dbl> <dbl> <dbl> <dbl> <lgl> <lgl> <lgl> <lgl> <lgl> <dbl>
     1  2024     1     1     0    18    60   2.1 NA    NA    NA    NA    NA    1019.
     2  2024     1     1     1    18    80   1   NA    NA    NA    NA    NA    1019.
     3  2024     1     1     2    18   100   1.5 NA    NA    NA    NA    NA    1019.
     4  2024     1     1     3    18    80   1.5 NA    NA    NA    NA    NA    1019.
     5  2024     1     1     4    18    60   1.5 NA    NA    NA    NA    NA    1019.
     6  2024     1     1     5    18   350   4.1 NA    NA    NA    NA    NA    1019.
     7  2024     1     1     6    18    20   4.1 NA    NA    NA    NA    NA    1019.
     8  2024     1     1     7    18    30   4.1 NA    NA    NA    NA    NA    1020.
     9  2024     1     1     8    18    60   2.6 NA    NA    NA    NA    NA    1020.
    10  2024     1     1     9    18    70   4.1 NA    NA    NA    NA    NA    1020.
    # ℹ 8,515 more rows
    # ℹ 5 more variables: atmp <dbl>, wtmp <dbl>, dewp <lgl>, vis <lgl>, tide <lgl>
…
